수자원공사, 마사회 기사 비교 분석
…
senti_dic_df <- read_tsv(str_c("data/knusenti/KnuSentiLex-master/", senti_name_v), col_names = F)

glimpse(senti_dic_df)

Rows: 14,855
Columns: 2
$ X1 <chr> "(-;", "(;_;)", "(^^)", "(^-^)", "(^^*", "(^_^)", "(^_^;", "(^o^)",…
$ X2 <dbl> 1, -1, 1, 1, 1, 1, -1, 1, -1, -1, -1, -1, 1, 1, 1, 1, 1, -1, 1, -1,…

senti_dic_df[1-5, ]

# A tibble: 14,854 × 2
   X1        X2
   <chr>  <dbl>
 1 (-;        1
 2 (;_;)     -1
 3 (^^)       1
 4 (^^*       1
 5 (^_^)      1
 6 (^_^;     -1
 7 (^o^)      1
 8 (-_-)     -1
 9 (T_T)     -1
10 (ㅡㅡ)    -1
# … with 14,844 more rows
…
Rows: 14,855
Columns: 2
$ word   <chr> "(-;", "(;_;)", "(^^)", "(^-^)", "(^^*", "(^_^)", "(^_^;", "(^o…
$ sScore <dbl> 1, -1, 1, 1, 1, 1, -1, 1, -1, -1, -1, -1, 1, 1, 1, 1, 1, -1, 1,…

마사회, 수자원 제목 정리

text.z <- read_excel("마사회제목.xlsx")

text.z %>% 
  unnest_tokens(output = word,
                input = text) %>% 
  count(word, sort = T)

# A tibble: 3,024 × 2
   word                 n
   <chr>            <int>
 1 한국마사회         272
 2 공공기관            80
 3 마사회              78
 4 년                  75
 5 경마                62
 6 100                 59
 7 부산경남경마공원    59
 8 5                   51
 9 개최                50
10 1                   48
# … with 3,014 more rows

tibble(text.z) %>% 
  unnest_tokens(output = word, input = text,
                token = "words") %>% 
 inner_join(senti_dic_df)

# A tibble: 172 × 2
   word  sScore
   <chr>  <dbl>
 1 감사       2
 2 향상       1
 3 감사       2
 4 몸살      -1
 5 성공       2
 6 성공       2
 7 성공       2
 8 완성       1
 9 대상       1
10 불법      -2
# … with 162 more rows
…
text.x <- read_excel("수자원제목.xlsx")

text.x %>% 
  unnest_tokens(output = word,
                input = text) %>% 
  count(word, sort = T)

# A tibble: 3,323 × 2
   word               n
   <chr>          <int>
 1 물                72
 2 방류              54
 3 2                 52
 4 년                52
 5 소양강댐          50
 6 한국수자원공사    48
 7 수문              46
 8 개방              37
 9 낙동강            37
10 k                 35
# … with 3,313 more rows

tibble(text.x) %>% 
  unnest_tokens(output = word, input = text,
                token = "words") %>% 
 inner_join(senti_dic_df)

# A tibble: 208 × 2
   word   sScore
   <chr>   <dbl>
 1 몸살       -1
 2 적극        1
 3 몸살       -1
 4 적극        1
 5 몸살       -1
 6 앓는       -2
 7 실용적      1
 8 피해       -1
 9 화재       -2
10 몸살       -1
# … with 198 more rows
…
 tibble(text.v) %>% 
  unnest_tokens(output = word, 
                input = text,
                token = "words" ) %>%
  separate(col = word, 
           into = c("word", "morph"),
           sep = ",") %>% 
  inner_join(senti_dic_df)

# A tibble: 26,864 × 4
   company    word  morph sScore
   <chr>      <chr> <chr>  <dbl>
 1 한국마사회 의회  <NA>      -1
 2 한국마사회 의심  <NA>      -1
 3 <NA>       대상  <NA>       1
 4 <NA>       승리  <NA>       2
 5 <NA>       보배  <NA>       1
 6 <NA>       최고  <NA>       2
 7 <NA>       분노  <NA>      -2
 8 <NA>       괴물  <NA>      -1
 9 <NA>       우수  <NA>       2
10 <NA>       능력  <NA>       1
# … with 26,854 more rows
…
