수자원공사, 마사회 기사 비교분석
…
Code

glimpse(senti_dic_df)

Rows: 14,855
Columns: 2
$ X1 <chr> "(-;", "(;_;)", "(^^)", "(^-^)", "(^^*", "(^_^)", "(^_^;", "(^o^)",…
$ X2 <dbl> 1, -1, 1, 1, 1, 1, -1, 1, -1, -1, -1, -1, 1, 1, 1, 1, 1, -1, 1, -1,…

Code

senti_dic_df[1-5, ]

# A tibble: 14,854 × 2
   X1        X2
   <chr>  <dbl>
 1 (-;        1
 2 (;_;)     -1
 3 (^^)       1
 4 (^^*       1
 5 (^_^)      1
 6 (^_^;     -1
 7 (^o^)      1
 8 (-_-)     -1
 9 (T_T)     -1
10 (ㅡㅡ)    -1
# … with 14,844 more rows
…
Code

m_df2 %>% 
  unnest_tokens(word, text) %>% 
  left_join(senti_dic_df) %>% 
  mutate(sScore = ifelse(sScore >= 1, "긍정",
                         ifelse(sScore <= -1, "부정", "중립"))) 

Joining, by = "word"

# A tibble: 144,395 × 4
   ID    label word         sScore
   <fct> <chr> <chr>        <chr> 
 1 1     0     영천경마공원 <NA>  
 2 1     0     건설         <NA>  
 3 1     0     첫           <NA>  
 4 1     0     삽           <NA>  
 5 1     0     영천경마공원 <NA>  
 6 1     0     경마공원     <NA>  
 7 1     0     영천시       <NA>  
 8 1     0     한국마사회   <NA>  
 9 1     0     영천         <NA>  
10 1     0     이철우       <NA>  
# … with 144,385 more rows
…
Code

s_df2 %>% 
  unnest_tokens(word, text) %>% 
  filter(!word %in% c("피해")) %>%
  left_join(senti_dic_df) %>% 
  mutate(sScore = ifelse(sScore >= 1, "긍정",
                         ifelse(sScore <= -1, "부정", "중립"))) 

Joining, by = "word"

# A tibble: 375,247 × 4
   ID    label word           sScore
   <fct> <chr> <chr>          <chr> 
 1 1     0     한국수자원공사 <NA>  
 2 1     0     청송권지사     <NA>  
 3 1     0     성덤댐         <NA>  
 4 1     0     운영           <NA>  
 5 1     0     소통회의       <NA>  
 6 1     0     열어           <NA>  
 7 1     0     홍수기         <NA>  
 8 1     0     한국수자원공사 <NA>  
 9 1     0     성덕댐         <NA>  
10 1     0     성덤댐         <NA>  
# … with 375,237 more rows
…
Code

s_td_beta <- s_stm_fit %>% 
  tidy(matrix = 'beta') 

s_td_beta %>% 
  group_by(topic) %>% 
  slice_max(beta, n = 7) %>% 
  ungroup() %>% 
  mutate(topic = str_c("주제", topic))

# A tibble: 42 × 3
   topic term      beta
   <chr> <chr>    <dbl>
 1 주제1 용담댐 0.00607
 2 주제1 부산   0.00564
 3 주제1 유충   0.00488
 4 주제1 지원   0.00476
 5 주제1 수해   0.00462
 6 주제1 개최   0.00436
 7 주제1 추진   0.00426
 8 주제2 용담댐 0.00634
 9 주제2 지원   0.00581
10 주제2 개최   0.00556
# … with 32 more rows
…
