네이버 기사 공사 비교
…
text_df <- tibble(text= text_v)

text_df %>%unnest_tokens(output = word, input = text)

# A tibble: 1,693 × 1
   word    
   <chr>   
 1 단독    
 2 마사회  
 3 마권    
 4 구매한도
 5 1       
 6 회      
 7 10      
 8 만원    
 9 위반    
10 5       
# … with 1,683 more rows

text_tk <- text_df %>% unnest_tokens(output = word, input = text)
text_tk %>% 
   count(word, sort = TRUE)

# A tibble: 155 × 2
   word           n
   <chr>      <int>
 1 한국마사회   106
 2 마사회        63
 3 지원          54
 4 취약계층      40
 5 렛츠런재단    30
 6 위반          30
 7 전통시장      30
 8 추석맞이      30
 9 10            21
10 5             21
# … with 145 more rows
…
 text_df <- tibble(text= text_x)

text_df %>%unnest_tokens(output = word, input = text)

# A tibble: 1,251 × 1
   word      
   <chr>     
 1 85        
 2 억        
 3 횡령      
 4 수자원공사
 5 직원      
 6 추가      
 7 횡령      
 8 혐의로    
 9 징역      
10 2         
# … with 1,241 more rows

text_tk <- text_df %>% unnest_tokens(output = word, input = text)
text_tk %>% 
   count(word, sort = TRUE)

# A tibble: 168 × 2
   word               n
   <chr>          <int>
 1 한국수자원공사   108
 2 수자원공사        73
 3 지원              29
 4 체결              28
 5 개최              27
 6 수자원에너지부    19
 7 양해각서          19
 8 에티오피아        19
 9 중                18
10 충주댐            18
# … with 158 more rows
…
